Memory usage summary: heap total: 7453988, heap peak: 2021806, stack peak: 93856
         total calls   total memory   failed calls
 malloc|      34123        6505209              0
realloc|        466         941938              0  (nomove:128, dec:3, free:0)
 calloc|         42           6841              0
   free|      39096        7426174
Histogram for block sizes:
    0-15           3356   9% =============
   16-31          12849  37% ==================================================
   32-47          10436  30% ========================================
   48-63           2598   7% ==========
   64-79            939   2% ===
   80-95            303  <1% =
   96-111           467   1% =
  112-127           406   1% =
  128-143           140  <1% 
  144-159            47  <1% 
  160-175            93  <1% 
  176-191           332  <1% =
  192-207            18  <1% 
  208-223            14  <1% 
  224-239           118  <1% 
  240-255            16  <1% 
  256-271           679   1% ==
  272-287             8  <1% 
  288-303             5  <1% 
  304-319             5  <1% 
  320-335             2  <1% 
  336-351             8  <1% 
  352-367           147  <1% 
  368-383             1  <1% 
  384-399             2  <1% 
  400-415            74  <1% 
  416-431             1  <1% 
  432-447           141  <1% 
  448-463             5  <1% 
  464-479             2  <1% 
  480-495            11  <1% 
  496-511             8  <1% 
  512-527           170  <1% 
  528-543            10  <1% 
  544-559             4  <1% 
  560-575             4  <1% 
  576-591             9  <1% 
  592-607             5  <1% 
  608-623           147  <1% 
  624-639             1  <1% 
  640-655            12  <1% 
  656-671             7  <1% 
  672-687            11  <1% 
  688-703             3  <1% 
  704-719             2  <1% 
  720-735             7  <1% 
  736-751             3  <1% 
  752-767             5  <1% 
  768-783             6  <1% 
  784-799             7  <1% 
  800-815             7  <1% 
  816-831             4  <1% 
  832-847            12  <1% 
  848-863            11  <1% 
  864-879           143  <1% 
  880-895            14  <1% 
  896-911             4  <1% 
  912-927             5  <1% 
  928-943             9  <1% 
  944-959            10  <1% 
  960-975             8  <1% 
  976-991             2  <1% 
  992-1007            2  <1% 
 1008-1023            5  <1% 
 1024-1039           14  <1% 
 1040-1055           13  <1% 
 1056-1071            7  <1% 
 1072-1087           33  <1% 
 1088-1103            6  <1% 
 1104-1119            2  <1% 
 1120-1135            3  <1% 
 1152-1167            3  <1% 
 1168-1183            1  <1% 
 1184-1199            7  <1% 
 1200-1215            3  <1% 
 1216-1231          122  <1% 
 1232-1247            1  <1% 
 1248-1263            1  <1% 
 1328-1343            3  <1% 
 1344-1359            4  <1% 
 1360-1375            6  <1% 
 1376-1391            8  <1% 
 1392-1407            4  <1% 
 1408-1423            3  <1% 
 1424-1439            2  <1% 
 1456-1471            5  <1% 
 1472-1487            3  <1% 
 1488-1503            4  <1% 
 1504-1519            3  <1% 
 1520-1535            1  <1% 
 1536-1551            1  <1% 
 1552-1567            2  <1% 
 1584-1599            1  <1% 
 1600-1615            3  <1% 
 1616-1631            1  <1% 
 1632-1647            1  <1% 
 1648-1663           97  <1% 
 1696-1711            1  <1% 
 1712-1727            1  <1% 
 1792-1807            1  <1% 
 1856-1871            1  <1% 
 1872-1887            1  <1% 
 1920-1935            2  <1% 
 2000-2015            1  <1% 
 2048-2063            1  <1% 
 2064-2079            4  <1% 
 2080-2095            2  <1% 
 2096-2111            4  <1% 
 2240-2255            1  <1% 
 2256-2271           53  <1% 
 2688-2703            1  <1% 
 2704-2719            1  <1% 
 3024-3039            4  <1% 
 3168-3183            9  <1% 
 3440-3455            1  <1% 
 3584-3599            1  <1% 
 4096-4111           15  <1% 
 4320-4335            1  <1% 
 5248-5263            2  <1% 
 6272-6287            1  <1% 
 6896-6911            1  <1% 
 7168-7183            1  <1% 
 8192-8207           84  <1% 
12288-12303           9  <1% 
13808-13823           1  <1% 
14336-14351           1  <1% 
16384-16399          15  <1% 
16560-16575           5  <1% 
16704-16719         134  <1% 
21840-21855           3  <1% 
27632-27647           1  <1% 
28672-28687           1  <1% 
32768-32783          12  <1% 
55264-55279           1  <1% 
   large              5  <1% 

