Memory usage summary: heap total: 65841357, heap peak: 7018400, stack peak: 92944
         total calls   total memory   failed calls
 malloc|      44945       65181614              0
realloc|       2228         462454              0  (nomove:1463, dec:573, free:0)
 calloc|        729         197289              0
   free|      36469       41656942
Histogram for block sizes:
    0-15           3436   7% ============
   16-31          13750  28% ==================================================
   32-47          11705  24% ==========================================
   48-63           2434   5% ========
   64-79            645   1% ==
   80-95            331  <1% =
   96-111          1126   2% ====
  112-127           455  <1% =
  128-143           135  <1% 
  144-159            44  <1% 
  160-175           290  <1% =
  176-191           332  <1% =
  192-207            21  <1% 
  208-223            15  <1% 
  224-239           115  <1% 
  240-255            15  <1% 
  256-271           680   1% ==
  272-287             8  <1% 
  288-303             4  <1% 
  304-319             2  <1% 
  320-335             2  <1% 
  336-351             9  <1% 
  352-367           145  <1% 
  368-383             1  <1% 
  384-399             4  <1% 
  400-415            74  <1% 
  416-431             3  <1% 
  432-447           145  <1% 
  448-463             1  <1% 
  464-479             4  <1% 
  480-495            13  <1% 
  496-511             7  <1% 
  512-527           242  <1% 
  528-543           134  <1% 
  544-559           124  <1% 
  560-575            70  <1% 
  576-591          2242   4% ========
  592-607            55  <1% 
  608-623           187  <1% 
  624-639           391  <1% =
  640-655            49  <1% 
  656-671            43  <1% 
  672-687            90  <1% 
  688-703            30  <1% 
  704-719           294  <1% =
  720-735           473  <1% =
  736-751            25  <1% 
  752-767            22  <1% 
  768-783           154  <1% 
  784-799            23  <1% 
  800-815           102  <1% 
  816-831            20  <1% 
  832-847            84  <1% 
  848-863           278  <1% =
  864-879           156  <1% 
  880-895            30  <1% 
  896-911            16  <1% 
  912-927            20  <1% 
  928-943           985   2% ===
  944-959            23  <1% 
  960-975            43  <1% 
  976-991            34  <1% 
  992-1007           17  <1% 
 1008-1023          175  <1% 
 1024-1039           53  <1% 
 1040-1055           23  <1% 
 1056-1071           16  <1% 
 1072-1087           43  <1% 
 1088-1103           29  <1% 
 1104-1119         1029   2% ===
 1120-1135           21  <1% 
 1136-1151           16  <1% 
 1152-1167           13  <1% 
 1168-1183            7  <1% 
 1184-1199          220  <1% 
 1200-1215            6  <1% 
 1216-1231          135  <1% 
 1232-1247           28  <1% 
 1248-1263           12  <1% 
 1264-1279           16  <1% 
 1280-1295            2  <1% 
 1296-1311           10  <1% 
 1312-1327            5  <1% 
 1328-1343            8  <1% 
 1344-1359            8  <1% 
 1360-1375            8  <1% 
 1376-1391          119  <1% 
 1392-1407           77  <1% 
 1408-1423            9  <1% 
 1424-1439            3  <1% 
 1440-1455            3  <1% 
 1456-1471            8  <1% 
 1472-1487            4  <1% 
 1488-1503            5  <1% 
 1504-1519            7  <1% 
 1520-1535           13  <1% 
 1536-1551           24  <1% 
 1552-1567            4  <1% 
 1568-1583            3  <1% 
 1584-1599            6  <1% 
 1600-1615          106  <1% 
 1616-1631            1  <1% 
 1632-1647            3  <1% 
 1648-1663           99  <1% 
 1664-1679            2  <1% 
 1680-1695            6  <1% 
 1696-1711            5  <1% 
 1712-1727            4  <1% 
 1728-1743            5  <1% 
 1744-1759            6  <1% 
 1760-1775            2  <1% 
 1776-1791            3  <1% 
 1792-1807            6  <1% 
 1808-1823            5  <1% 
 1824-1839            5  <1% 
 1840-1855            3  <1% 
 1856-1871           80  <1% 
 1872-1887            3  <1% 
 1888-1903            1  <1% 
 1904-1919            1  <1% 
 1920-1935            6  <1% 
 1936-1951            2  <1% 
 1952-1967            3  <1% 
 1968-1983            4  <1% 
 1984-1999            3  <1% 
 2000-2015            1  <1% 
 2016-2031          201  <1% 
 2032-2047            2  <1% 
 2048-2063           54  <1% 
 2080-2095           32  <1% 
 2096-2111            5  <1% 
 2112-2127            1  <1% 
 2144-2159           69  <1% 
 2160-2175            2  <1% 
 2192-2207            1  <1% 
 2208-2223          174  <1% 
 2224-2239            2  <1% 
 2240-2255            7  <1% 
 2256-2271           54  <1% 
 2272-2287            1  <1% 
 2304-2319            3  <1% 
 2320-2335            5  <1% 
 2336-2351            1  <1% 
 2352-2367            3  <1% 
 2368-2383            5  <1% 
 2384-2399            2  <1% 
 2400-2415            5  <1% 
 2416-2431            6  <1% 
 2432-2447            6  <1% 
 2448-2463            2  <1% 
 2464-2479           49  <1% 
 2480-2495            1  <1% 
 2512-2527            5  <1% 
 2528-2543            3  <1% 
 2544-2559            3  <1% 
 2608-2623            2  <1% 
 2624-2639            3  <1% 
 2640-2655            5  <1% 
 2656-2671            2  <1% 
 2672-2687            2  <1% 
 2688-2703            1  <1% 
 2704-2719            2  <1% 
 2752-2767            4  <1% 
 2768-2783            1  <1% 
 2800-2815            4  <1% 
 2832-2847           37  <1% 
 2864-2879            4  <1% 
 2880-2895            2  <1% 
 2896-2911            4  <1% 
 2992-3007            3  <1% 
 3008-3023            2  <1% 
 3024-3039            4  <1% 
 3040-3055            1  <1% 
 3072-3087            1  <1% 
 3088-3103            1  <1% 
 3120-3135            1  <1% 
 3136-3151            2  <1% 
 3168-3183            1  <1% 
 3184-3199            1  <1% 
 3200-3215            3  <1% 
 3232-3247           31  <1% 
 3248-3263            1  <1% 
 3264-3279            2  <1% 
 3296-3311            1  <1% 
 3312-3327            3  <1% 
 3328-3343            1  <1% 
 3360-3375            3  <1% 
 3376-3391            4  <1% 
 3392-3407            2  <1% 
 3408-3423            1  <1% 
 3456-3471            2  <1% 
 3472-3487            1  <1% 
 3488-3503            2  <1% 
 3504-3519            3  <1% 
 3536-3551            1  <1% 
 3568-3583            4  <1% 
 3584-3599            4  <1% 
 3616-3631            1  <1% 
 3632-3647            2  <1% 
 3648-3663            4  <1% 
 3664-3679            1  <1% 
 3680-3695            2  <1% 
 3696-3711           18  <1% 
 3776-3791            2  <1% 
 3792-3807            1  <1% 
 3808-3823            2  <1% 
 3824-3839            1  <1% 
 3872-3887            2  <1% 
 3904-3919            1  <1% 
 3920-3935            3  <1% 
 3936-3951            2  <1% 
 4000-4015            1  <1% 
 4032-4047            3  <1% 
 4080-4095            2  <1% 
 4096-4111          419  <1% =
 4112-4127            1  <1% 
 4128-4143            7  <1% 
 4160-4175            2  <1% 
 4176-4191            2  <1% 
 4192-4207            1  <1% 
 4208-4223            8  <1% 
 4256-4271           15  <1% 
 4272-4287            2  <1% 
 4336-4351            1  <1% 
 4352-4367            1  <1% 
 4400-4415            2  <1% 
 4416-4431            2  <1% 
 4464-4479            1  <1% 
 4512-4527            2  <1% 
 4624-4639           55  <1% 
 4736-4751            1  <1% 
 4768-4783            2  <1% 
 4784-4799           13  <1% 
 4800-4815            1  <1% 
 4864-4879            1  <1% 
 4928-4943            2  <1% 
 4960-4975            1  <1% 
 5008-5023            2  <1% 
 5024-5039            1  <1% 
 5072-5087            2  <1% 
 5088-5103            2  <1% 
 5120-5135            3  <1% 
 5232-5247            1  <1% 
 5248-5263            3  <1% 
 5280-5295            1  <1% 
 5296-5311            3  <1% 
 5328-5343            2  <1% 
 5344-5359            2  <1% 
 5360-5375            4  <1% 
 5376-5391            2  <1% 
 5424-5439            4  <1% 
 5440-5455            2  <1% 
 5456-5471            1  <1% 
 5504-5519            2  <1% 
 5520-5535            3  <1% 
 5536-5551            1  <1% 
 5584-5599            2  <1% 
 5600-5615            2  <1% 
 5616-5631            3  <1% 
 5648-5663            2  <1% 
 5680-5695            1  <1% 
 5712-5727            2  <1% 
 5744-5759            2  <1% 
 5760-5775            2  <1% 
 5776-5791            2  <1% 
 5808-5823            2  <1% 
 5840-5855            6  <1% 
 5888-5903            1  <1% 
 5904-5919            2  <1% 
 5920-5935            1  <1% 
 5936-5951            2  <1% 
 5984-5999            2  <1% 
 6032-6047            1  <1% 
 6048-6063            2  <1% 
 6080-6095            2  <1% 
 6096-6111            2  <1% 
 6160-6175            3  <1% 
 6176-6191            1  <1% 
 6192-6207            2  <1% 
 6272-6287            2  <1% 
 6320-6335            1  <1% 
 6352-6367            2  <1% 
 6368-6383            1  <1% 
 6384-6399            2  <1% 
 6400-6415            3  <1% 
 6464-6479            1  <1% 
 6592-6607            1  <1% 
 6672-6687            1  <1% 
 6688-6703            1  <1% 
 6736-6751            1  <1% 
 6752-6767            2  <1% 
 6768-6783            1  <1% 
 6784-6799            1  <1% 
 6832-6847            2  <1% 
 6848-6863            1  <1% 
 6896-6911            2  <1% 
 6944-6959            1  <1% 
 6960-6975            1  <1% 
 6992-7007            6  <1% 
 7072-7087            1  <1% 
 7088-7103            2  <1% 
 7136-7151            1  <1% 
 7152-7167            1  <1% 
 7168-7183            4  <1% 
 7184-7199            3  <1% 
 7200-7215            1  <1% 
 7264-7279            1  <1% 
 7280-7295            2  <1% 
 7328-7343            2  <1% 
 7376-7391            1  <1% 
 7392-7407            1  <1% 
 7424-7439            1  <1% 
 7456-7471            2  <1% 
 7472-7487            1  <1% 
 7488-7503            1  <1% 
 7568-7583            4  <1% 
 7632-7647            2  <1% 
 7696-7711            1  <1% 
 7712-7727            1  <1% 
 7808-7823            1  <1% 
 7920-7935            2  <1% 
 7968-7983            1  <1% 
 7984-7999            1  <1% 
 8000-8015            1  <1% 
 8096-8111            2  <1% 
 8192-8207           15  <1% 
 8224-8239          236  <1% 
 8240-8255            7  <1% 
 8256-8271            4  <1% 
 8272-8287            1  <1% 
 8352-8367            2  <1% 
 8368-8383            1  <1% 
 8400-8415            2  <1% 
 8432-8447            1  <1% 
 8512-8527            3  <1% 
 8544-8559            2  <1% 
 8576-8591            1  <1% 
 8640-8655            4  <1% 
 8768-8783            2  <1% 
 8800-8815            3  <1% 
 8816-8831            2  <1% 
 8848-8863            1  <1% 
 8864-8879            3  <1% 
 8928-8943            2  <1% 
 8960-8975            2  <1% 
 8992-9007            1  <1% 
 9024-9039            2  <1% 
 9136-9151            1  <1% 
 9168-9183            1  <1% 
 9200-9215            4  <1% 
 9248-9263           18  <1% 
 9296-9311            1  <1% 
 9312-9327            2  <1% 
 9440-9455            2  <1% 
 9552-9567            1  <1% 
 9568-9583            2  <1% 
 9584-9599            2  <1% 
 9600-9615            1  <1% 
 9744-9759            2  <1% 
 9760-9775            2  <1% 
 9872-9887            2  <1% 
 9888-9903            2  <1% 
10064-10079           1  <1% 
10320-10335           1  <1% 
10368-10383           1  <1% 
10400-10415           1  <1% 
10448-10463           2  <1% 
10512-10527           2  <1% 
10560-10575           2  <1% 
10656-10671           2  <1% 
10672-10687           2  <1% 
10736-10751           2  <1% 
10816-10831           1  <1% 
11040-11055           2  <1% 
11200-11215           3  <1% 
11216-11231           2  <1% 
11344-11359           2  <1% 
11360-11375           2  <1% 
11376-11391           2  <1% 
11472-11487           2  <1% 
11488-11503           2  <1% 
11904-11919           1  <1% 
12000-12015           1  <1% 
12048-12063           4  <1% 
12240-12255           1  <1% 
12288-12303           2  <1% 
12480-12495           2  <1% 
12496-12511           2  <1% 
12576-12591           1  <1% 
12592-12607           1  <1% 
12640-12655           2  <1% 
12800-12815           1  <1% 
12832-12847           3  <1% 
12896-12911           2  <1% 
12944-12959           2  <1% 
13008-13023           2  <1% 
13152-13167           1  <1% 
13184-13199           2  <1% 
13216-13231           2  <1% 
13344-13359           2  <1% 
13520-13535           2  <1% 
13600-13615           3  <1% 
13712-13727           2  <1% 
13760-13775           1  <1% 
13776-13791           2  <1% 
13856-13871           1  <1% 
14032-14047           1  <1% 
14096-14111           2  <1% 
14208-14223           1  <1% 
14336-14351           2  <1% 
14368-14383           2  <1% 
14400-14415           1  <1% 
14464-14479           2  <1% 
14576-14591           1  <1% 
14672-14687           1  <1% 
14688-14703           2  <1% 
14832-14847           2  <1% 
15104-15119           2  <1% 
15168-15183           2  <1% 
15200-15215           1  <1% 
15296-15311           2  <1% 
15440-15455           2  <1% 
15648-15663           2  <1% 
15712-15727           2  <1% 
15776-15791           2  <1% 
15824-15839           2  <1% 
15888-15903           2  <1% 
16000-16015           1  <1% 
16096-16111           2  <1% 
16384-16399           2  <1% 
16400-16415           2  <1% 
16416-16431          61  <1% 
16464-16479           2  <1% 
16560-16575           5  <1% 
16704-16719          85  <1% 
16720-16735           2  <1% 
16736-16751           2  <1% 
16800-16815           1  <1% 
16960-16975           2  <1% 
17088-17103           2  <1% 
17152-17167           2  <1% 
17184-17199           2  <1% 
17296-17311           2  <1% 
17600-17615           1  <1% 
17632-17647           2  <1% 
17888-17903           1  <1% 
18080-18095           2  <1% 
18240-18255           1  <1% 
18400-18415           1  <1% 
18448-18463          13  <1% 
18592-18607           2  <1% 
18784-18799           1  <1% 
18848-18863           1  <1% 
19056-19071           1  <1% 
19072-19087           1  <1% 
19088-19103           2  <1% 
19200-19215           1  <1% 
19536-19551           1  <1% 
19552-19567           1  <1% 
19680-19695           1  <1% 
19872-19887           2  <1% 
19920-19935           2  <1% 
19984-19999           1  <1% 
20000-20015           1  <1% 
20128-20143           2  <1% 
20256-20271           2  <1% 
20400-20415           2  <1% 
20432-20447           2  <1% 
20592-20607           2  <1% 
20672-20687           2  <1% 
20800-20815           1  <1% 
21360-21375           4  <1% 
21408-21423           2  <1% 
21600-21615           3  <1% 
21648-21663           2  <1% 
21680-21695           3  <1% 
21840-21855           3  <1% 
21920-21935           2  <1% 
22000-22015           1  <1% 
22112-22127           2  <1% 
22176-22191           2  <1% 
22192-22207           4  <1% 
22256-22271           2  <1% 
22400-22415           1  <1% 
22448-22463           1  <1% 
22496-22511           3  <1% 
22800-22815           2  <1% 
22896-22911           2  <1% 
22976-22991           2  <1% 
23200-23215           1  <1% 
23488-23503           2  <1% 
23504-23519           2  <1% 
23520-23535           1  <1% 
23568-23583           2  <1% 
23616-23631           2  <1% 
23696-23711           2  <1% 
23776-23791           2  <1% 
24000-24015           1  <1% 
24032-24047           2  <1% 
24128-24143           2  <1% 
24240-24255           2  <1% 
24432-24447           2  <1% 
24800-24815           1  <1% 
24864-24879           2  <1% 
25024-25039           2  <1% 
25600-25615           1  <1% 
25872-25887           2  <1% 
26016-26031           2  <1% 
26128-26143           2  <1% 
26192-26207           2  <1% 
26272-26287           2  <1% 
26320-26335           2  <1% 
26400-26415           1  <1% 
26688-26703           2  <1% 
26720-26735           2  <1% 
26944-26959           2  <1% 
26960-26975           2  <1% 
27088-27103           2  <1% 
27152-27167           2  <1% 
27168-27183           2  <1% 
27200-27215           1  <1% 
27232-27247           2  <1% 
27616-27631           2  <1% 
27760-27775           2  <1% 
27808-27823           2  <1% 
27920-27935           2  <1% 
28000-28015           1  <1% 
28080-28095           2  <1% 
28736-28751           2  <1% 
28768-28783           2  <1% 
28800-28815           1  <1% 
28832-28847           2  <1% 
29072-29087           2  <1% 
29600-29615           1  <1% 
29712-29727           2  <1% 
30112-30127           1  <1% 
30400-30415           1  <1% 
30416-30431           2  <1% 
31200-31215           1  <1% 
31344-31359           2  <1% 
32000-32015           1  <1% 
32096-32111           1  <1% 
32768-32783           2  <1% 
32800-32815          21  <1% 
32816-32831          24  <1% 
33104-33119           2  <1% 
33504-33519           1  <1% 
33520-33535           1  <1% 
33568-33583           2  <1% 
33600-33615           1  <1% 
33936-33951           2  <1% 
33968-33983           2  <1% 
34048-34063           2  <1% 
34400-34415           1  <1% 
34640-34655           2  <1% 
34720-34735           2  <1% 
34976-34991           1  <1% 
35200-35215           1  <1% 
35264-35279           2  <1% 
35856-35871           1  <1% 
36000-36015           1  <1% 
36320-36335           2  <1% 
36608-36623           1  <1% 
36624-36639           1  <1% 
36800-36815           1  <1% 
36896-36911           6  <1% 
37408-37423           2  <1% 
37584-37599           2  <1% 
37600-37615           1  <1% 
37904-37919           2  <1% 
38400-38415           1  <1% 
38912-38927           4  <1% 
39040-39055           2  <1% 
39200-39215           1  <1% 
39952-39967           2  <1% 
40000-40015           1  <1% 
40256-40271           2  <1% 
40336-40351           2  <1% 
40656-40671           2  <1% 
40800-40815           1  <1% 
40832-40847         200  <1% 
41600-41615           1  <1% 
41936-41951           2  <1% 
42400-42415           1  <1% 
43040-43055           2  <1% 
43200-43215           1  <1% 
43552-43567           2  <1% 
44000-44015           1  <1% 
44624-44639           2  <1% 
44800-44815           1  <1% 
45072-45087           1  <1% 
45600-45615           1  <1% 
46400-46415           1  <1% 
46464-46479           2  <1% 
46816-46831           2  <1% 
46896-46911           2  <1% 
47104-47119           2  <1% 
47200-47215           1  <1% 
47552-47567           2  <1% 
48000-48015           1  <1% 
48800-48815           1  <1% 
48864-48879           2  <1% 
49600-49615           1  <1% 
50032-50047           1  <1% 
50400-50415           1  <1% 
50480-50495           2  <1% 
50560-50575           2  <1% 
50608-50623           2  <1% 
50784-50799           2  <1% 
50880-50895           2  <1% 
51200-51215           1  <1% 
51632-51647           2  <1% 
52000-52015           1  <1% 
52800-52815           1  <1% 
53600-53615           1  <1% 
54032-54047           2  <1% 
54400-54415           1  <1% 
54528-54543           2  <1% 
55200-55215           1  <1% 
56000-56015           1  <1% 
56800-56815           1  <1% 
57008-57023           2  <1% 
57600-57615           1  <1% 
58400-58415           1  <1% 
59200-59215           1  <1% 
59584-59599           2  <1% 
60000-60015           1  <1% 
60800-60815           1  <1% 
61600-61615           1  <1% 
61904-61919           2  <1% 
62400-62415           2  <1% 
62448-62463           1  <1% 
64416-64431           2  <1% 
64880-64895           2  <1% 
65312-65327           4  <1% 
   large            145  <1% 

